…
``` r
b1 <- 7.222e-03
b1li <- b1 - 1.725e-04 
b1ls <- b1 + 1.725e-04 
```

``` r
broom::augment(mod)
#> # A tibble: 73 x 8
#>    xco2_mean month_year .fitted   .resid   .hat .sigma     .cooksd .std.resid
#>        <dbl> <date>       <dbl>    <dbl>  <dbl>  <dbl>       <dbl>      <dbl>
#>  1      393. 2014-09-01    393.  0.322   0.0532  0.971 0.00331        0.343  
#>  2      393. 2014-10-01    393.  0.00218 0.0511  0.972 0.000000145    0.00232
#>  3      392. 2014-11-01    393. -0.847   0.0490  0.966 0.0208        -0.900  
#>  4      392. 2014-12-01    393. -0.819   0.0470  0.967 0.0186        -0.870  
#>  5      392. 2015-01-01    393. -1.06    0.0450  0.963 0.0300        -1.13   
#>  6      392. 2015-02-01    394. -1.48    0.0431  0.955 0.0554        -1.57   
#>  7      392. 2015-03-01    394. -1.96    0.0414  0.942 0.0925        -2.07   
#>  8      393. 2015-04-01    394. -1.08    0.0396  0.963 0.0268        -1.14   
#>  9      394. 2015-05-01    394.  0.0854  0.0379  0.972 0.000160       0.0902 
#> 10      395. 2015-06-01    395.  0.846   0.0362  0.966 0.0150         0.893  
#> # ... with 63 more rows
broom::augment(mod, interval="confidence")
#> # A tibble: 73 x 10
#>    xco2_mean month_year .fitted .lower .upper   .resid   .hat .sigma     .cooksd
#>        <dbl> <date>       <dbl>  <dbl>  <dbl>    <dbl>  <dbl>  <dbl>       <dbl>
#>  1      393. 2014-09-01    393.   392.   393.  0.322   0.0532  0.971 0.00331    
#>  2      393. 2014-10-01    393.   392.   393.  0.00218 0.0511  0.972 0.000000145
#>  3      392. 2014-11-01    393.   393.   393. -0.847   0.0490  0.966 0.0208     
#>  4      392. 2014-12-01    393.   393.   394. -0.819   0.0470  0.967 0.0186     
#>  5      392. 2015-01-01    393.   393.   394. -1.06    0.0450  0.963 0.0300     
#>  6      392. 2015-02-01    394.   393.   394. -1.48    0.0431  0.955 0.0554     
#>  7      392. 2015-03-01    394.   394.   394. -1.96    0.0414  0.942 0.0925     
#>  8      393. 2015-04-01    394.   394.   395. -1.08    0.0396  0.963 0.0268     
#>  9      394. 2015-05-01    394.   394.   395.  0.0854  0.0379  0.972 0.000160   
#> 10      395. 2015-06-01    395.   394.   395.  0.846   0.0362  0.966 0.0150     
#> # ... with 63 more rows, and 1 more variable: .std.resid <dbl>
…
